-8 -8 -16 -16 -16 -16 -16 840
-16 -40 -32 -8 -48 -16 -24 752
-8 -40 -40 -40 -24 -32 -16 -32 696
-16 -48 -16 8 -32 -40 -24 752
-32 -48 -24 -40 -32 776
-16 -40 -16 -32 -40 -48 752
-32 -16 -48 -24 -32 -24 -16 -16 720
-32 -24 -48 -16 -16 -40 -32 -16 -8 -32 648
-32 -16 -24 -8 -24 -40 800
-24 -32 -48 -8 -16 -24 -48 736
-16 -48 -24 -16 16 -48 -16 -48 -48 -48 584
-24 -8 -40 896
-24 -40 -16 -16 864
16 -32 -8 -32 -24 -24 -48 752
-32 -8 -24 -16 -16 -32 -48 -24 -32 -32 648
-8 -8 -40 912
-32 952
-48 -16 -24 -40 -40 -56 -24 -24 -32 616
-16 -32 -24 -40 -40 -40 752
-24 -8 -8 -24 -24 -48 -24 776
